Benzo-opioid v2 analysis
…
2018-09-27

2de9790

Dennis Wollersheim

2018-09-26

geographic variation for CC users

Notes: 1) we multiply the percentage numbers by 10 to take into account the 10% sample 1) not standardised

3 different percentages, for each

# A tibble: 2,094 x 3
   lga   user_type            n
   <chr> <fct>            <int>
 1 .     1_benzodiazapine  1596
 2 .     1_opioid          4996
 3 .     2_double-dipper    376
 4 .     2_seperate_times  1997
 5 10050 1_benzodiazapine   270
 6 10050 1_opioid          1153
 7 10050 2_double-dipper     99
 8 10050 2_seperate_times   424
 9 10110 1_benzodiazapine   104
10 10110 1_opioid           464
# ... with 2,084 more rows
…
